-------------------------------------------------------------------------------
Test set: com.mycollege.core.models.TestHelloWorldModel
-------------------------------------------------------------------------------
Tests run: 1, Failures: 0, Errors: 0, Skipped: 0, Time elapsed: 0.434 sec - in com.mycollege.core.models.TestHelloWorldModel
